<?xml version="1.0" standalone="yes"?>

<svg version="1.1" viewBox="0.0 0.0 260.56167979002623 260.56167979002623" fill="none" stroke="none" stroke-linecap="square" stroke-miterlimit="10" xmlns="http://www.w3.org/2000/svg" xmlns:xlink="http://www.w3.org/1999/xlink"><clipPath id="p.0"><path d="m0 0l260.56168 0l0 260.56168l-260.56168 0l0 -260.56168z" clip-rule="nonzero"></path></clipPath><g clip-path="url(#p.0)"><path fill="#000000" fill-opacity="0.0" d="m0 0l260.56168 0l0 260.56168l-260.56168 0z" fill-rule="evenodd"></path><defs><radialGradient id="p.1" gradientUnits="userSpaceOnUse" gradientTransform="matrix(13.253377132391043 0.0 0.0 13.253377132391043 0.0 0.0)" spreadMethod="pad" cx="9.832387221482135" cy="9.832387221482136" fx="9.832387221482135" fy="9.832387221482136" r="13.253376960754395"><stop offset="0.0" stop-color="#ffc002"></stop><stop offset="1.0" stop-color="#795b04"></stop></radialGradient></defs><path fill="url(#p.1)" d="m6.1076117 130.31233l0 0c0 -68.596375 55.60835 -124.20472 124.20472 -124.20472l0 0c32.941147 0 64.5331 13.085816 87.826004 36.37872c23.292908 23.292904 36.378723 54.88486 36.378723 87.826004l0 0c0 68.596375 -55.608353 124.20473 -124.20473 124.20473l0 0c-68.596375 0 -124.20472 -55.608353 -124.20472 -124.20473z" fill-rule="evenodd"></path><path stroke="#000000" stroke-width="8.0" stroke-linejoin="round" stroke-linecap="butt" d="m6.1076117 130.31233l0 0c0 -68.596375 55.60835 -124.20472 124.20472 -124.20472l0 0c32.941147 0 64.5331 13.085816 87.826004 36.37872c23.292908 23.292904 36.378723 54.88486 36.378723 87.826004l0 0c0 68.596375 -55.608353 124.20473 -124.20473 124.20473l0 0c-68.596375 0 -124.20472 -55.608353 -124.20472 -124.20473z" fill-rule="evenodd"></path><path fill="#000000" d="m175.67366 152.1092l18.953125 4.796875q-5.96875 23.328125 -21.453125 35.59375q-15.46875 12.25 -37.828125 12.25q-23.140617 0 -37.656242 -9.421875q-14.5 -9.421875 -22.0625 -27.296875q-7.5625 -17.875 -7.5625 -38.375q0 -22.359367 8.53125 -39.015617q8.546875 -16.65625 24.3125 -25.296875q15.78125 -8.640629 34.734367 -8.640629q21.484375 0 36.125 10.937504q14.65625 10.9375 20.40625 30.765625l-18.640625 4.390625q-4.984375 -15.625 -14.46875 -22.75q-9.46875 -7.125 -23.8125 -7.125q-16.515617 0 -27.593742 7.90625q-11.078125 7.90625 -15.578125 21.234375q-4.484375 13.328125 -4.484375 27.499992q0 18.25 5.3125 31.875q5.328125 13.625 16.546875 20.375q11.234375 6.734375 24.328117 6.734375q15.921875 0 26.953125 -9.171875q11.03125 -9.1875 14.9375 -27.265625z" fill-rule="nonzero"></path></g></svg>

