<?xml version="1.0" standalone="yes"?>

<svg version="1.1" viewBox="0.0 0.0 260.56167979002623 260.56167979002623" fill="none" stroke="none" stroke-linecap="square" stroke-miterlimit="10" xmlns="http://www.w3.org/2000/svg" xmlns:xlink="http://www.w3.org/1999/xlink"><clipPath id="p.0"><path d="m0 0l260.56168 0l0 260.56168l-260.56168 0l0 -260.56168z" clip-rule="nonzero"></path></clipPath><g clip-path="url(#p.0)"><path fill="#000000" fill-opacity="0.0" d="m0 0l260.56168 0l0 260.56168l-260.56168 0z" fill-rule="evenodd"></path><defs><radialGradient id="p.1" gradientUnits="userSpaceOnUse" gradientTransform="matrix(13.345022058045387 -13.34266024386144 13.34266024386144 13.345022058045387 0.0 0.0)" spreadMethod="pad" cx="0.002148557274380024" cy="9.764620192573483" fx="0.002148557274380024" fy="9.764620192573483" r="13.345022201538086"><stop offset="0.0" stop-color="#ffc002"></stop><stop offset="1.0" stop-color="#795b04"></stop></radialGradient></defs><path fill="url(#p.1)" d="m3.553067 257.0196l40.22622 -126.16478l-38.554176 -125.641846l125.664085 38.547356l126.1871 -40.2191l-40.22621 126.16477l38.55417 125.641846l-125.66408 -38.547348z" fill-rule="evenodd"></path><path stroke="#000000" stroke-width="8.0" stroke-linejoin="round" stroke-linecap="butt" d="m3.553067 257.0196l40.22622 -126.16478l-38.554176 -125.641846l125.664085 38.547356l126.1871 -40.2191l-40.22621 126.16477l38.55417 125.641846l-125.66408 -38.547348z" fill-rule="evenodd"></path><path fill="#000000" fill-opacity="0.0" d="m-27.520432 23.282825l315.59778 0l0 213.98338l-315.59778 0z" fill-rule="evenodd"></path><path fill="#000000" d="m83.50248 166.05888l0 -28.84375l-28.640625 0l0 -12.062492l28.640625 0l0 -28.640625l12.203125 0l0 28.640625l28.625008 0l0 12.062492l-28.625008 0l0 28.84375l-12.203125 0zm122.81684 4.59375l0 12.421875l-69.546875 0q-0.140625 -4.671875 1.5 -8.96875q2.65625 -7.109375 8.5 -14.0q5.859375 -6.890625 16.90625 -15.9375q17.15625 -14.0625 23.1875 -22.281242q6.03125 -8.21875 6.03125 -15.546875q0 -7.671875 -5.5 -12.953125q-5.484375 -5.28125 -14.3125 -5.28125q-9.328125 0 -14.9375 5.609375q-5.59375 5.59375 -5.65625 15.5l-13.28125 -1.359375q1.359375 -14.859375 10.265625 -22.640625q8.90625 -7.796875 23.90625 -7.796875q15.140625 0 23.96875 8.40625q8.828125 8.390625 8.828125 20.8125q0 6.3125 -2.59375 12.421875q-2.578125 6.09375 -8.578125 12.843742q-5.984375 6.734375 -19.90625 18.515625q-11.625 9.765625 -14.9375 13.25q-3.296875 3.46875 -5.453125 6.984375l51.609375 0z" fill-rule="nonzero"></path></g></svg>

