<?xml version="1.0" standalone="yes"?>

<svg version="1.1" viewBox="0.0 0.0 260.56167979002623 260.56167979002623" fill="none" stroke="none" stroke-linecap="square" stroke-miterlimit="10" xmlns="http://www.w3.org/2000/svg" xmlns:xlink="http://www.w3.org/1999/xlink"><clipPath id="p.0"><path d="m0 0l260.56168 0l0 260.56168l-260.56168 0l0 -260.56168z" clip-rule="nonzero"></path></clipPath><g clip-path="url(#p.0)"><path fill="#000000" fill-opacity="0.0" d="m0 0l260.56168 0l0 260.56168l-260.56168 0z" fill-rule="evenodd"></path><path fill="#000000" fill-opacity="0.0" d="m3.553067 257.0196l40.22622 -126.16478l-38.554176 -125.641846l125.664085 38.547356l126.1871 -40.2191l-40.22621 126.16477l38.55417 125.641846l-125.66408 -38.547348z" fill-rule="evenodd"></path></g></svg>

