<?xml version="1.0" standalone="yes"?>

<svg version="1.1" viewBox="0.0 0.0 260.56167979002623 260.56167979002623" fill="none" stroke="none" stroke-linecap="square" stroke-miterlimit="10" xmlns="http://www.w3.org/2000/svg" xmlns:xlink="http://www.w3.org/1999/xlink"><clipPath id="p.0"><path d="m0 0l260.56168 0l0 260.56168l-260.56168 0l0 -260.56168z" clip-rule="nonzero"></path></clipPath><g clip-path="url(#p.0)"><path fill="#000000" fill-opacity="0.0" d="m0 0l260.56168 0l0 260.56168l-260.56168 0z" fill-rule="evenodd"></path><path fill="#ffffff" d="m5.2021 130.28609l125.1181 -125.11811l125.11812 125.11811l-125.11812 125.11812z" fill-rule="evenodd"></path><path stroke="#000000" stroke-width="8.0" stroke-linejoin="round" stroke-linecap="butt" d="m5.2021 130.28609l125.1181 -125.11811l125.11812 125.11811l-125.11812 125.11812z" fill-rule="evenodd"></path><path fill="#000000" fill-opacity="0.0" d="m-27.520432 23.282825l315.59778 0l0 213.98338l-315.59778 0z" fill-rule="evenodd"></path><path fill="#000000" d="m83.50248 166.05888l0 -28.84375l-28.640625 0l0 -12.062492l28.640625 0l0 -28.640625l12.203125 0l0 28.640625l28.625008 0l0 12.062492l-28.625008 0l0 28.84375l-12.203125 0zm103.582466 17.015625l-12.921875 0l0 -82.32812q-4.65625 4.453125 -12.234375 8.90625q-7.578125 4.4375 -13.609375 6.671875l0 -12.5q10.84375 -5.09375 18.953125 -12.34375q8.109375 -7.25 11.484375 -14.0625l8.328125 0l0 105.65624z" fill-rule="nonzero"></path></g></svg>

