Left,Middle,Right
Liturgy,Scripture,Taboo
Liturgy,Scripture,Taboo
Liturgy,Scripture,Taboo
Scripture,Taboo,Holiday
Scripture,Taboo,Holiday
Scripture,Taboo,Holiday
Taboo,Holiday,Divinity
Taboo,Holiday,Divinity
Taboo,Holiday,Divinity
Holiday,Divinity,Custom
Holiday,Divinity,Custom
Holiday,Divinity,Custom
Divinity,Custom,Metaphysics
Divinity,Custom,Metaphysics
Divinity,Custom,Metaphysics
Custom,Metaphysics,Liturgy
Custom,Metaphysics,Liturgy
Custom,Metaphysics,Liturgy
Metaphysics,Liturgy,Scripture
Metaphysics,Liturgy,Scripture
Metaphysics,Liturgy,Scripture
