Aspect,Title,Text
Scripture,Flooding,... and then the massive flood submerged the land...
Scripture,Transmutations,... and then the still water was transformed into bubbling Diet Dr. Pepper...
Scripture,Earthquakes,... and then the entire earth trembled with fear...
Scripture,Creating Men,... and then the first men were created from it...
Scripture,Creating Women,... and then the first women were created from it...
Scripture,Making Fossils,... and then the scary-looking dinosaur bones were buried underground...
Scripture,Evolution Happens,... and then the big-brained monkeys came down from the trees...
Scripture,Rejoicing,... and then the righteous people rejoiced...
Scripture,Crying,... and then the cowardly people cried out...
Scripture,Nothing Exists,... and then there was nothing...
Scripture,Killing,... and then the joyous people slaughtered it...
Scripture,Firmamentation,... and then the heavenly firmament was split...
Scripture,Cloudiness,... and then the frigid clouds of ice and snow covered the land...
Scripture,Fire Descends,... and then the thunderous cloud of fire and smoke descended...
Scripture,Fire Ascends,... and then the thunderous cloud of fire and smoke ascended...
Scripture,Famine Strikes,... and then the terrible famine spread across the land...
Scripture,Fly You Fools!,... and then the one ring was cast into the fires of Mt. Doom...
Scripture,Snacking,... and then the famished people began to snack...
Scripture,People Trembling,... and then the tarnished people trembled with fear...
Scripture,Raining,... and then the vengeful rain continued for two and three quarter fortnights...
Scripture,Job Well Done,... and then it was good...
Scripture,Job Not Well Done,... and then it was not good...
Scripture,Emerging Beasts,... and then the giant beaver emerged from the river...
Scripture,Excessive Frogs,... and then the bewildered frogs covered the land and the sea...
Holiday,Cyber Monday,"Half off laptop sleeves, anybody?"
Holiday,Black Friday,"Also known as ""Human Stampede Day."""
Holiday,Thanksgiving,Gobble gobble gobble gobble gobble gobble gobble. Burp.
Holiday,Christmas,Have a jolly jolly Christmas!
Holiday,Hanukkah,Festival of Lights (with eight CRAZY nights).
Holiday,Ides of March,RIP Julius Caesar. It's also time to settle your debts!
Holiday,Spring Solstice,Equal hours of daytime and nighttime... coincidence?
Holiday,Penance Day,Say you're sorry and never do it again! Same time next year?
Holiday,Fall Harvest,Apple picking is 'harvesting' right?
Holiday,Your Birthday!,"I mean, this is YOUR religion for what it's worth."
Holiday,November 5th,"Remember, remember..."
Holiday,Creation Day,... and that's how we exist!
Holiday,Valentine's Day,There's nothing like the commercialization of love with delicious chocolates.
Holiday,Saturnalia,"Pagans have Christmas, too!"
Holiday,Opet Festival,A ritual journey from the shrines at Karnak to the temple of Luxor (OMG a PARADE?!?).
Holiday,Miracle Day,"Celebration of that one miracle, you know..."
Holiday,Day of Defeat,"That time they tried to kill us, but they didn't!"
Holiday,Day of Victory,"That time we tried to kill them, and we did!"
Holiday,Cinco de Mayo,The French lose again! Salsa anybody?
Holiday,Halloween,BOO!!! Candy?
Holiday,Solar New Year,I resolve to buy more exercise equipment and never use it.
Holiday,Lunar New Year,Let's party!!
Holiday,Academic Year,Final exams. Suck.
Holiday,Taco Tuesday,Second only to Wing Wednesday.
Custom,Pyramids,Big triangular houses for dead rich people.
Custom,Beach Walks,"Long walks on the beach... Pina colada, anyone?"
Custom,Pirates,Yeaaaarghh. Give me your booty!
Custom,Circumcision,Owwww.....
Custom,Mummification,Not to be confused with zombification.
Custom,Endocannibalism,"Eating the flesh of the dead (for reals, this is a thing, look it up)."
Custom,Manly Hats,As opposed to un-manly hats.
Custom,Religious Courts,"Not like tennis. Or, maybe like tennis?"
Custom,Spaghetti Eating,In all it's noodle-y goodness.
Custom,Pilgrimage,"To the holy city of Ottawa, Canada."
Custom,Siestas,Strict nappage between the hours of 2pm and 3pm.
Custom,Weekday Service,Give us your time during work hours!
Custom,Weekend Service,Give us your free time!
Custom,Daily Meditation,Levitating whilst meditating is encouraged.
Custom,Fasting,Intermittently (clearly....).
Custom,Clergy,Hierarchical (think russian dolls).
Custom,Eat Local,Support local farmers! Hand-picked strawberries for $16.99!
Custom,Religious Leader,One who is infallible in every way. No seriously. Every. Way.
Custom,Customer Service,No shirt? No shoes? No service!
Custom,Facial Hair,"Sweet beards. Ladies, you too. No excuses."
Custom,Tighty Whities,"Yes, they are as uncomfortable to wear as they are to witness."
Custom,Lingerie,Who says religion can't be a teeny bit sexy?
Custom,Rock Bands,Rockin' out for *insert deity here*.
Custom,Zodiac Signs,"Scorpio: Sometime in the next week, expect to become a predatory arachnid."
Metaphysics,Heaven,Only followers with untarnished souls deserve a place in the world to come.
Metaphysics,Reincarnation,Been bad? KABAM! You're a cockroach now. Been good? KABAM! You're now a flippin' UNICORN!
Metaphysics,Blasphemers,"All ""blasphemers"" shall be punished after death, where a ""blasphemer"" either lacks reverence for religion or plays this game."
Metaphysics,Dualism,"Dualism is the belief that your body and mind are distinct, despite overwhelming medical evidence to the contrary."
Metaphysics,Determinism,God does not roll dice (in contrast to prevailing physical interpretations of the theory of quantum mechanics).
Metaphysics,Intimate Reality,"We are living in a transcendent, eternal, ultimate, infinite, but fundamentally intimate reality. Also known as ""fancy-word-nonsense."""
Metaphysics,Free will,You have the capacity to decide your own future (in the face of overwhelming forces of the universe and in seeming paradox to the concept of an all-powerful creator).
Metaphysics,Predestination,Your place in the afterlife has already been determined before you were born. Check your privilege?
Metaphysics,5 Elements,"The five elements of Earth, Wind, Fire, Water, and Aether form all matter. The first three elements also released over 20 studio albums and tore up the 70s with a series of funk and R&B hit singles."
Metaphysics,Alchemy,"Alchemy, not chemistry, is the basis of science. Transmuting base metals to noble metals only requires lead, gold, and sleight of hand!"
Metaphysics,Elvis Concert,"Death is an endless Elvis concert, cause you ain't nothing but a hound dog!"
Metaphysics,Matrix,We live in the matrix. Spoilers?
Metaphysics,Robots,"Everyone is a robot (except you, of course)."
Metaphysics,Existentialism,You are meaningless. Life is meaningless. The universe is meaningless. Need a hug?
Metaphysics,Crafty Flowers,The tulips are up to something...
Metaphysics,Cosmic Ocean,The world is afloat on a vast cosmic ocean of time and space which endlessly swirls and cascades about.
Metaphysics,Turtles,"The world is on the back of giant turtle, which is on top of another turtle. Don't you see? There are turtles all the way down!"
Metaphysics,Flat Earth,The earth is flat (and every picture of the earth from space is photoshopped).
Metaphysics,Ancestral Stars,"The stars are our ancestors in the sky, watching over us with a loving gaze."
Metaphysics,Meaning,"Everything has a purpose, we just haven't figured it out yet."
Metaphysics,Fate,"Your fate has already been determined, no matter what you do. Tough break, eh?"
Metaphysics,Reward the Good,The righteous are rewarded with riches in this life.
Metaphysics,Hell,The evil will be tortured for all eternity in the afterlife.
Metaphysics,Multiverse,There are infinitely many universes containing all possible realities.
Liturgy,Then Sit!,... then suddenly sit back down!
Liturgy,Then Stand!,... then slowly stand back up!
Liturgy,Then Snack!,... then loudly snack on Hilda's chocolate chip cookies!
Liturgy,Then Kneel!,... then meekly kneel in reverence!
Liturgy,Then Sacrifice!,... then joyously sacrifice the person to your left!
Liturgy,Then Sing!,... then raucously sing Psalm 2415!
Liturgy,Then Mutter!,... then angrily mutter about your terrible week!
Liturgy,Then Chant!,"... then monotonously chant ""Only You Can Prevent Forest Fires!"""
Liturgy,Then Respond!,... then responsively and responsibly repeat the reply!
Liturgy,Then Read!,... then silently read from the prayer book!
Liturgy,Then Fast!,... then immediately stop snacking for 24 hours!
Liturgy,Then Pee!,... then delicately relieve your bowels!
Liturgy,Then Lighten!,... then cheerfully light the BRAZIER OF FIRE!!!
Liturgy,Then Darken!,... then sorrowfully extinguish the BRAZIER OF FIRE!!!
Liturgy,Then Hum!,... then dramatically hum Beethoven's 5th!
Liturgy,Then Wash!,... then sensually scrub your body in sacred water!
Liturgy,Then Sprinkle!,... then wearily sprinkle bath salts all around!
Liturgy,Then Hokey Pokey!,... then do the Hokey Pokey and turn yourself around! That's what it's all about! Hey!
Liturgy,Then Dance!,... then cut loose - footloose! Put on your sunday shoes!
Liturgy,Simon Says...,... NOW Simon says...
Liturgy,Then Quoth!,... then quoth the Raven “Nevermore.”
Liturgy,Then Gossip!,... then endlessly gossip about the person to your right!
Liturgy,Then Feast!,... then figuratively feast on your accomplishments!
Liturgy,Then Drink!,... then literally drink the souls of your ancestors!
Divinity,Saint Michael,Archangel and Leader of Heaven's Armies. Highly photogenic.
Divinity,Chuck Norris,Chuck Norris doesn't cheat death. He wins fair and square.
Divinity,Tiamat,Monstrous Embodiment of Primordial Chaos. Takes her tea with milk AND lemon.
Divinity,Tree of Life,The Tree giveth.. and the Tree TAKETH!
Divinity,Baal Hammon,King God of Vegetation. Enjoys the occasional burnt child as a human sacrifice.
Divinity,Ishtar,Goddess of Beauty and Desire. >250 million followers on Instagram.
Divinity,Osiris,King of the Living. Lord of the Underworld. Judge of the Dead and Season 46 of American Idol.
Divinity,Anubis,The Divine Embalmer and Protector of Tombs. Not a great conversationalist.
Divinity,Leviathan,"Wrathful Monster of the Deep. Always hungry, but don't mention her weight."
Divinity,Ra,God of the Sun and always looking.... radiant.... (hehehe)
Divinity,Odin,"God of Knowledge. Old, wise, and lumbersexual before it was cool."
Divinity,Zeus,"God of Thunder, Lightning, and Storms. Great hair, better bod."
Divinity,Athena,"Goddess of Strategic Warfare, Music, Poetry, Medicine, Wisdom. Has a 4.0 GPA and likes owls."
Divinity,Sol Invictus,"Patron of Soldiers, Manliness, and Ivy League Fraternities."
Divinity,Wonder Woman,"Superhero with the Bracelets of Submission, the Lasso of Truth, and the Biceps of Steel."
Divinity,Azazel,"The Immortal King of Devils. Handsome, lucky and detail-oriented."
Divinity,Hel,"Goddess of the Underworld. Gives new meaning to the phrase ""Go to Hel."""
Divinity,Oprah,Goddess of Daytime Television. You get a car! And you get a car! Everyone gets a car!!!
Divinity,Diana,"Goddess of the Hunt, Moon, and Nature. More of a dog person."
Divinity,Ixchel,"Jaguar Goddess of Midwifery and Medicine. Has her own private island and no, you aren't invited."
Divinity,Loviatar,"Goddess of Death and Disease. Birthed the Nine Diseases (Consumption, Colic, Gout, Rickets, Ulcers, Scabs, Cancer and Plague). Not great at parties."
Divinity,Spaghetti Monster,Flying Spaghetti Monster. Secretly obsessed with changing carbon dating results with its Noodly Appendage.
Divinity,Tefnut,"Goddess of Moisture, Rain, and Dew. Mother of the Earth and Sky. Creator of Rainbows."
Divinity,Zurvan,God of Infinite Time and Space. Enjoys Friends reruns and Netflix Comedy Specials.
Taboo,Stomach Snores,No sleeping on your stomach. It's bad for your back and the Night gods don't enjoy farts aimed in their direction.
Taboo,Necking,"No short, plain, concave sections between the capital and the shaft of a classical Doric or Tuscan column. You know... necking..."
Taboo,Swearing,&%@* &*@# !*@! ((@#! &!&@#&!!@@ $!#! *#@(#* #@$#@@!!!!!
Taboo,Talking,"Shush, no talking!!! However, feel free to communicate with morse code, flag semaphore, or emojis."
Taboo,50/50 Poly-Cotton,"50/50 Polyester-Cotton blends are breathable, tear-resistant, and loaded with sin."
Taboo,Long hair,"Get that bob cut, girl!"
Taboo,Short hair,Man-buns and top-knots are strictly necessary.
Taboo,Sit to Poop,We take our daily dumps standing in reverence to the glory of the gods!
Taboo,Nerds,It's your ABC's: Always Be Cool.
Taboo,Dancing,"Like at the beginning of Footloose, you know?"
Taboo,Zippers,Buttons are a safer and more environmentally friendly solution. Plus they look cute!
Taboo,Meat,"Animals have friends, you monster!!!"
Taboo,Vegetables,"Gods don't eat veggies, so why should you?"
Taboo,Carbohydrates,Cut calories and procure favor from the gods with our new and improved Ketogenic diet!
Taboo,Back Hair,"Chest hair though, that's rad."
Taboo,Showering,"An enlightened and pure mind requires an impure, greasy, and odorous body."
Taboo,Music,"All forms of singing, musical instruments, and rhythmic beats departing from a strict 80 bpm tempo are prohibited!"
Taboo,Sobriety,Night caps. Morning caps. Nap caps. Every caps!
Taboo,Procreation,Virgin births only.
Taboo,OJ Post-Brush,Brushing your teeth after drinking orange juice?!? Have a sense of decency!!!
Taboo,Eat then Swim,Because we aren't savages!
Taboo,Black Cats,"Yes, they are cute and cuddly, but they are demons sent from the Nether World to flay your flesh from your body!"
Taboo,Eggs and Mars,You are forbidden from eating poached eggs while Mars is in retrograde. And don't even get me started on scrambled eggs.
Taboo,Pickled Herring,Because ewwwwwwwwww.